<?xml version="1.0" standalone="no"?>
<!DOCTYPE svg PUBLIC "-//W3C//DTD SVG 20010904//EN"
 "http://www.w3.org/TR/2001/REC-SVG-20010904/DTD/svg10.dtd">
<svg version="1.0" xmlns="http://www.w3.org/2000/svg"
 width="260.000000pt" height="260.000000pt" viewBox="0 0 260.000000 260.000000"
 preserveAspectRatio="xMidYMid meet">
<metadata>
Created by potrace 1.11, written by Peter Selinger 2001-2013
</metadata>
<g transform="translate(0.000000,260.000000) scale(0.100000,-0.100000)"
fill="#000000" stroke="none">
<path d="M1951 2280 c-92 -66 -181 -173 -259 -313 -33 -57 -114 -248 -155
-362 -100 -278 -152 -576 -120 -685 17 -58 16 -105 -1 -163 -8 -26 -12 -47
-10 -47 2 0 -4 -19 -12 -42 -10 -28 -17 -89 -19 -173 -3 -102 -8 -141 -24
-182 -14 -35 -17 -53 -9 -53 15 0 96 85 108 113 6 12 14 29 20 37 5 8 27 52
48 97 22 45 62 109 88 143 127 159 155 221 140 305 -10 52 -55 95 -98 95 -39
0 -68 -23 -122 -97 -21 -29 -42 -53 -47 -53 -33 0 -9 88 35 129 44 41 109 61
177 56 35 -3 69 -8 75 -10 27 -9 97 20 139 57 53 47 80 94 92 164 8 44 8 59 4
109 -2 27 -19 16 -57 -37 -56 -79 -97 -120 -105 -106 -9 14 11 59 76 168 88
148 88 145 91 405 2 242 8 319 30 393 17 59 12 92 -14 92 -9 0 -42 -18 -71
-40z m-117 -442 c13 -36 -2 -63 -82 -147 -70 -72 -103 -118 -147 -199 -16 -28
-30 -50 -32 -48 -7 6 67 199 104 275 40 80 105 154 131 149 9 -2 21 -15 26
-30z m-114 -394 c0 -7 -28 -36 -62 -65 -34 -28 -68 -57 -75 -65 -8 -8 -16 -14
-19 -14 -22 0 69 136 104 154 29 15 52 11 52 -10z m-230 -819 c4 -18 1 -41 -7
-57 -14 -29 -32 -37 -34 -15 -2 29 3 104 8 121 5 19 6 19 16 0 6 -10 13 -32
17 -49z"/>
<path d="M784 1483 c-38 -6 -94 -20 -124 -31 -77 -27 -223 -100 -257 -129
l-28 -24 45 7 c99 15 156 2 240 -57 46 -32 119 -66 148 -69 47 -4 142 -53 128
-67 -2 -2 -41 5 -86 17 -44 13 -84 20 -87 16 -4 -4 -3 -19 3 -34 20 -59 167
-102 277 -81 148 29 210 18 247 -43 24 -39 25 -61 6 -77 -12 -10 -18 -7 -33
16 -63 98 -115 117 -191 71 -66 -40 -71 -97 -18 -192 45 -80 49 -122 24 -237
-15 -67 -18 -99 -11 -122 l9 -32 16 30 c9 17 44 54 77 84 62 53 101 115 117
181 4 19 9 40 10 45 1 6 5 25 9 44 3 19 20 66 37 105 49 112 40 223 -28 358
-81 161 -315 258 -530 221z m276 -101 c36 -17 76 -40 90 -51 23 -19 19 -19
-45 5 -71 26 -84 27 -275 21 -76 -2 -88 16 -30 46 55 29 176 19 260 -21z m107
-128 c43 -25 62 -44 44 -44 -5 0 -12 4 -15 9 -5 8 -70 19 -151 26 -32 3 -31
33 2 38 41 5 73 -2 120 -29z m63 -539 c-14 -37 -52 -85 -67 -85 -21 0 -15 46
10 64 12 9 31 23 42 31 26 19 26 19 15 -10z"/>
</g>
</svg>
